…
# 5. Find out which host plant is most resistant

```r
broomrape_sep %>%
  group_by(accession) %>%
  summarise(ave_attachment = mean(counts, na.rm = T)) %>%
  arrange(ave_attachment)
```

```
## # A tibble: 104 × 2
##    accession ave_attachment
##    <chr>              <dbl>
##  1 P96                0    
##  2 RHA464             0.817
##  3 PO3-2              1.18 
##  4 J2                 2.19 
##  5 J3                 2.38 
##  6 PO7-13             2.86 
##  7 PO7-61             3.34 
##  8 PO7-34             4.28 
##  9 PO7-38             4.42 
## 10 PO7-63             4.55 
## # ℹ 94 more rows
```
…
